{
  "id": 413377,
  "url": "https://freesound.org/people/MBARI_MARS/sounds/413377/",
  "name": "Gray whale",
  "tags": [
    "gray-whale",
    "Monterey-Bay",
    "Eschrichtius-robustus",
    "California",
    "ocean-soundscape",
    "marine-mammals",
    "cetacean-acoustics",
    "field-recording",
    "MBARI",
    "hydrophone"
  ],
  "description": "This recording of gray whale (<i>Eschrichtius robustus</i>) vocalizations is part of a series of recordings from an <a href=\"http://www.mbari.org/technology/solving-challenges/persistent-presence/mars-hydrophone/\" rel=\"nofollow\"> oceanic soundscape project</a> using a <a href=\"http://www.mbari.org/at-sea/cabled-observatory/\" rel=\"nofollow\"> deep-sea cabled observatory</a> off the California coast.  More information about this research project is available in a <a href=\"http://ieeexplore.ieee.org/document/7761363/\" rel=\"nofollow\">publication</a>.\r\n\r\nThe recording was made on 18 August 2015.  &copy; 2015 Monterey Bay Aquarium Research Institute\r\n\r\nThanks to Tetyana Margolina for identifying the vocalizations.  These examples are from a 10-minute period; recording between calls was shortened to focus on the calls.  Some gray whale M1 calls are also included (sound like a knock).",
  "geotag": "36.7128 -122.186",
  "created": "2017-12-12T20:31:21",
  "license": "http://creativecommons.org/licenses/by-nc/3.0/",
  "type": "wav",
  "channels": 1,
  "filesize": 62792,
  "bitrate": 16,
  "bitdepth": 16,
  "duration": 31.322,
  "samplerate": 1000,
  "username": "MBARI_MARS",
  "pack": "https://freesound.org/apiv2/packs/19487/",
  "pack_name": "MARS hydrophone",
  "download": "https://freesound.org/apiv2/sounds/413377/download/",
  "bookmark": "https://freesound.org/apiv2/sounds/413377/bookmark/",
  "previews": {
    "preview-lq-ogg": "https://freesound.org/data/previews/413/413377_6181234-lq.ogg",
    "preview-lq-mp3": "https://freesound.org/data/previews/413/413377_6181234-lq.mp3",
    "preview-hq-ogg": "https://freesound.org/data/previews/413/413377_6181234-hq.ogg",
    "preview-hq-mp3": "https://freesound.org/data/previews/413/413377_6181234-hq.mp3"
  },
  "images": {
    "waveform_l": "https://freesound.org/data/displays/413/413377_6181234_wave_L.png",
    "waveform_m": "https://freesound.org/data/displays/413/413377_6181234_wave_M.png",
    "spectral_m": "https://freesound.org/data/displays/413/413377_6181234_spec_M.jpg",
    "spectral_l": "https://freesound.org/data/displays/413/413377_6181234_spec_L.jpg"
  },
  "num_downloads": 11,
  "avg_rating": 0,
  "num_ratings": 0,
  "rate": "https://freesound.org/apiv2/sounds/413377/rate/",
  "comments": "https://freesound.org/apiv2/sounds/413377/comments/",
  "num_comments": 0,
  "comment": "https://freesound.org/apiv2/sounds/413377/comment/",
  "similar_sounds": "https://freesound.org/apiv2/sounds/413377/similar/",
  "analysis": "No descriptors specified. You should indicate which descriptors you want with the 'descriptors' request parameter.",
  "analysis_frames": "https://freesound.org/data/analysis/413/413377_6181234_frames.json",
  "analysis_stats": "https://freesound.org/apiv2/sounds/413377/analysis/"
}
